<svg width="120" height="29" viewBox="0 0 120 29" fill="none" xmlns="http://www.w3.org/2000/svg">
<rect x="91.084" width="28.9157" height="28.9157" fill="#121263"/>
<path d="M105.657 28.9157C105.657 20.8669 99.1327 14.3422 91.084 14.3422V28.9157H105.657Z" fill="#F5D39B"/>
<path d="M105.427 -6.04243e-06C105.427 8.04871 111.951 14.5735 120 14.5735L120 -4.76837e-06L105.427 -6.04243e-06Z" fill="#F5D39B"/>
<path d="M91.0836 0C75.114 0 62.168 12.946 62.168 28.9157H91.0836V0Z" fill="#A32833"/>
<path d="M91.0836 28.9157V0L62.168 28.9157H91.0836Z" fill="#121263"/>
<ellipse rx="6.93976" ry="6.93976" transform="matrix(4.37114e-08 -1 -1 -4.37114e-08 76.5095 14.5735)" fill="#F5D39B"/>
<rect width="14.4578" height="14.4578" transform="matrix(-1 0 0 1 47.7109 14.4576)" fill="#A32833"/>
<path d="M47.7101 28.9157V14.4578L62.168 0V28.9157H47.7101Z" fill="#121263"/>
<path d="M47.7101 28.9157V14.4578L62.168 0V28.9157H47.7101Z" fill="#121263"/>
<path d="M47.7101 14.4578L62.168 0L47.7101 0V14.4578Z" fill="#F5D39B"/>
<rect width="4.85508" height="7.39822" transform="matrix(-1 0 0 1 42.748 14.3553)" fill="#F4F1E9"/>
<rect width="4.85508" height="7.16702" transform="matrix(-1 0 0 1 42.748 7.18835)" fill="#A32833"/>
<path d="M33.2536 28.9157V0L4.33789 28.9157H33.2536Z" fill="#121263"/>
<ellipse rx="7.22892" ry="7.22892" transform="matrix(1.19249e-08 -1 -1 -1.19249e-08 7.22812 14.4577)" fill="#A32833"/>
</svg>
