<svg width="30" height="29" viewBox="0 0 30 29" fill="none" xmlns="http://www.w3.org/2000/svg">
<rect width="14.4578" height="14.4578" transform="matrix(1 0 0 -1 15 14.458)" fill="#A32833"/>
<path d="M15.0008 -1.90735e-05V14.4578L0.542969 28.9156L0.542969 -1.90735e-05H15.0008Z" fill="#121263"/>
<path d="M15.0008 -1.90735e-05V14.4578L0.542969 28.9156L0.542969 -1.90735e-05H15.0008Z" fill="#121263"/>
<path d="M15.0008 14.4578L0.542969 28.9156H15.0008V14.4578Z" fill="#F5D39B"/>
<rect width="4.85508" height="7.39822" transform="matrix(1 0 0 -1 19.9629 14.5603)" fill="#F4F1E9"/>
<rect width="4.85508" height="7.16702" transform="matrix(1 0 0 -1 19.9629 21.7273)" fill="#A32833"/>
</svg>
