<svg width="20" height="21" viewBox="0 0 20 21" fill="none" xmlns="http://www.w3.org/2000/svg">
<path d="M15.8333 16.306H4.16667V4.63932H10V2.97266H2.5V17.9727H17.5V10.4727H15.8333V16.306ZM11.6667 2.97266V4.63932H14.6583L6.46667 12.831L7.64167 14.006L15.8333 5.81432V8.80599H17.5V2.97266H11.6667Z" fill="#F4F1E9"/>
</svg>
