<svg width="30" height="30" viewBox="0 0 30 30" fill="none" xmlns="http://www.w3.org/2000/svg">
<path d="M9.375 26.25H2.5V11.25H9.375V26.25ZM18.4375 3.75H11.5625V26.25H18.4375V3.75ZM27.5 13.75H20.625V26.25H27.5V13.75Z" fill="#F4F1E9"/>
</svg>
