<svg width="19" height="31" viewBox="0 0 19 31" fill="none" xmlns="http://www.w3.org/2000/svg">
<path d="M18.5251 4.02512L15.0001 0.500122L6.10352e-05 15.5001L15.0001 30.5001L18.5251 26.9751L7.07506 15.5001L18.5251 4.02512Z" fill="#F4F1E9"/>
</svg>
