<svg width="22" height="21" viewBox="0 0 22 21" fill="none" xmlns="http://www.w3.org/2000/svg">
<path d="M10.755 20.4992C10.7492 20.5 10.7417 20.5 10.735 20.5C10.6709 20.5 10.6109 20.48 10.5609 20.4467L10.5617 20.4475C10.3525 20.2833 10.4292 19.8842 10.5175 19.4217C10.5825 19.1808 10.62 18.905 10.62 18.62C10.62 18.4967 10.6134 18.375 10.5992 18.255L10.6009 18.27C10.5192 17.8692 10.1892 17.565 9.78088 17.5242H9.77672C9.64088 17.5083 9.52755 17.4942 9.42088 17.4792C8.12005 17.295 6.94422 16.9358 5.85505 16.4233L5.93088 16.455C5.35172 16.1833 4.86172 15.9025 4.39588 15.5867L4.43505 15.6117C3.95088 15.285 3.52838 14.9458 3.13588 14.575L3.14088 14.5792C2.75755 14.2175 2.41005 13.8267 2.09838 13.4075L2.08172 13.3833C1.79338 12.9967 1.52838 12.5592 1.30755 12.0967L1.28672 12.0492C0.860882 11.1725 0.612549 10.1425 0.612549 9.055C0.612549 8.44333 0.690882 7.85 0.839216 7.28417L0.828382 7.3325C0.988382 6.72083 1.20088 6.18667 1.47005 5.6875L1.45088 5.72667C1.74838 5.17583 2.07588 4.70083 2.44922 4.265L2.44005 4.27583C2.83588 3.80917 3.26255 3.39333 3.72588 3.02083L3.74422 3.00667C4.20588 2.635 4.72338 2.28917 5.27005 1.98917L5.32505 1.96167C5.83505 1.68 6.43422 1.41333 7.05755 1.19833L7.14005 1.17333C7.70255 0.975 8.37755 0.801667 9.07172 0.685L9.14588 0.675C9.79338 0.564167 10.5384 0.500834 11.2992 0.500834C12.06 0.500834 12.805 0.564167 13.5309 0.685834L13.4525 0.675C14.2209 0.801667 14.8959 0.975 15.5475 1.2L15.4584 1.17333C16.1642 1.41333 16.7634 1.68 17.3342 1.9925L17.2734 1.96167C17.875 2.28917 18.3925 2.635 18.875 3.0225L18.8542 3.00667C19.3359 3.39333 19.7625 3.80917 20.1475 4.2625L20.1584 4.27583C20.5209 4.70083 20.8475 5.17667 21.1217 5.685L21.1434 5.72833C21.3942 6.1875 21.6084 6.72083 21.7575 7.28083L21.7692 7.33167C21.9067 7.84917 21.9859 8.44333 21.9859 9.05583C21.9859 9.90917 21.8325 10.7258 21.5517 11.4817L21.5675 11.4333C21.2667 12.2442 20.8692 12.9458 20.3784 13.5708L20.3909 13.5542C20.3267 13.6467 20.2617 13.7267 20.1917 13.8025L20.1934 13.8008L20.1867 13.8083C19.83 14.2317 19.45 14.6108 19.0392 14.9558L19.025 14.9675C17.6042 16.2608 16.0559 17.4833 14.425 18.5933L14.28 18.6867C13.6834 19.1017 12.9825 19.535 12.2592 19.9308L12.1359 19.9925C11.9159 20.1133 11.6484 20.2392 11.3725 20.3492L11.3225 20.3667C11.1567 20.4383 10.9634 20.4867 10.7617 20.4992H10.7567H10.755ZM15.7409 6.5475C15.4334 6.54833 15.185 6.7975 15.1842 7.10417V11.2358C15.185 11.5433 15.4342 11.7917 15.7409 11.7925H17.8959C18.2034 11.7917 18.4517 11.5425 18.4525 11.2358V11.1892C18.4517 10.8817 18.2025 10.6333 17.8959 10.6325H16.3434V9.75167H17.895C18.2025 9.75083 18.4509 9.50167 18.4517 9.195V9.14833C18.4509 8.84083 18.2017 8.5925 17.895 8.59167H16.3434V7.70917H17.895C18.2025 7.70833 18.4509 7.45917 18.4517 7.1525V7.105C18.4509 6.7975 18.2017 6.54917 17.895 6.54833L15.7409 6.5475ZM10.765 6.5375C10.4575 6.53833 10.2092 6.7875 10.2084 7.09417V11.2258C10.2092 11.5333 10.4584 11.7817 10.765 11.7825H10.8117C11.1192 11.7817 11.3675 11.5325 11.3684 11.2258V8.75417L13.3967 11.525C13.41 11.5458 13.4234 11.5642 13.4384 11.5817L13.4375 11.5808C13.4909 11.6533 13.5642 11.7083 13.6484 11.74L13.6517 11.7408C13.7142 11.7675 13.7867 11.7825 13.8625 11.7825H13.865H13.9117C14.0067 11.7825 14.0967 11.7583 14.1742 11.7158L14.1709 11.7175C14.2242 11.6933 14.27 11.6592 14.3067 11.6167V11.6158C14.4059 11.5158 14.4675 11.3783 14.4675 11.2258V11.225V7.09417C14.4675 6.78667 14.2184 6.5375 13.9109 6.5375H13.8617C13.5542 6.53833 13.3059 6.7875 13.305 7.09417V9.52L11.2934 6.81917C11.1959 6.64917 11.0167 6.53583 10.81 6.53417L10.765 6.5375ZM8.82005 6.5375C8.51255 6.53833 8.26422 6.7875 8.26338 7.09417V11.2258C8.26422 11.5333 8.51338 11.7817 8.82005 11.7825H8.86672C9.17422 11.7817 9.42255 11.5325 9.42338 11.2258V7.09417C9.42255 6.78667 9.17338 6.53833 8.86672 6.5375H8.82005ZM5.10172 6.5375C4.79422 6.53833 4.54588 6.7875 4.54505 7.09417V11.2258C4.54588 11.5333 4.79505 11.7817 5.10172 11.7825H7.25505C7.56255 11.7817 7.81088 11.5325 7.81172 11.2258V11.1842C7.81172 10.8767 7.56255 10.6275 7.25505 10.6275H5.70422V7.095C5.70338 6.7875 5.45422 6.53917 5.14755 6.53833L5.10172 6.5375Z" fill="#F4F1E9"/>
</svg>
